<svg width="22" height="21" viewBox="0 0 22 21" fill="none" xmlns="http://www.w3.org/2000/svg">
<path d="M7.31579 14.299L8.0499 13.62L7.31579 14.299ZM0.329947 19.2577C-0.0800214 19.6277 -0.112373 20.2601 0.257687 20.6701C0.627747 21.08 1.26008 21.1124 1.67005 20.7423L0.329947 19.2577ZM20 8.91667C20 12.7393 16.9105 15.8333 13.1053 15.8333V17.8333C18.0203 17.8333 22 13.8386 22 8.91667H20ZM6.21053 8.91667C6.21053 5.09408 9.30002 2 13.1053 2V0C8.19022 0 4.21053 3.99474 4.21053 8.91667H6.21053ZM13.1053 2C16.9105 2 20 5.09408 20 8.91667H22C22 3.99474 18.0203 0 13.1053 0V2ZM13.1053 15.8333C11.1085 15.8333 9.31073 14.9831 8.0499 13.62L6.58168 14.978C8.20452 16.7325 10.5272 17.8333 13.1053 17.8333V15.8333ZM8.0499 13.62C6.90783 12.3853 6.21053 10.734 6.21053 8.91667H4.21053C4.21053 11.2563 5.11075 13.3878 6.58168 14.978L8.0499 13.62ZM6.64574 13.5567L0.329947 19.2577L1.67005 20.7423L7.98584 15.0413L6.64574 13.5567Z" fill="black"/>
</svg>
